module codeberg.org/meatpuppet/waitingroom

go 1.23

toolchain go1.23.1

require (
	github.com/charmbracelet/bubbles v0.20.0
	github.com/charmbracelet/bubbletea v1.2.4
	github.com/charmbracelet/lipgloss v1.0.0
	github.com/fhs/gompd/v2 v2.3.0
	github.com/lithammer/fuzzysearch v1.1.8
	github.com/mcuadros/go-defaults v1.2.0
	github.com/mitchellh/mapstructure v1.5.0
	github.com/pelletier/go-toml/v2 v2.2.3
	github.com/rs/zerolog v1.33.0
	github.com/spf13/cobra v1.8.1
	github.com/spf13/viper v1.19.0
)

require (
	github.com/atotto/clipboard v0.1.4 // indirect
	github.com/aymanbagabas/go-osc52/v2 v2.0.1 // indirect
	github.com/charmbracelet/x/ansi v0.7.0 // indirect
	github.com/charmbracelet/x/term v0.2.1 // indirect
	github.com/erikgeiser/coninput v0.0.0-20211004153227-1c3628e74d0f // indirect
	github.com/fsnotify/fsnotify v1.8.0 // indirect
	github.com/hashicorp/hcl v1.0.0 // indirect
	github.com/inconshreveable/mousetrap v1.1.0 // indirect
	github.com/lucasb-eyer/go-colorful v1.2.0 // indirect
	github.com/magiconair/properties v1.8.9 // indirect
	github.com/mattn/go-colorable v0.1.14 // indirect
	github.com/mattn/go-isatty v0.0.20 // indirect
	github.com/mattn/go-localereader v0.0.1 // indirect
	github.com/mattn/go-runewidth v0.0.16 // indirect
	github.com/muesli/ansi v0.0.0-20230316100256-276c6243b2f6 // indirect
	github.com/muesli/cancelreader v0.2.2 // indirect
	github.com/muesli/termenv v0.15.2 // indirect
	github.com/rivo/uniseg v0.4.7 // indirect
	github.com/sagikazarmark/locafero v0.7.0 // indirect
	github.com/sagikazarmark/slog-shim v0.1.0 // indirect
	github.com/sourcegraph/conc v0.3.0 // indirect
	github.com/spf13/afero v1.12.0 // indirect
	github.com/spf13/cast v1.7.1 // indirect
	github.com/spf13/pflag v1.0.5 // indirect
	github.com/subosito/gotenv v1.6.0 // indirect
	go.uber.org/multierr v1.11.0 // indirect
	golang.org/x/exp v0.0.0-20250106191152-7588d65b2ba8 // indirect
	golang.org/x/sync v0.10.0 // indirect
	golang.org/x/sys v0.29.0 // indirect
	golang.org/x/text v0.21.0 // indirect
	gopkg.in/ini.v1 v1.67.0 // indirect
	gopkg.in/yaml.v3 v3.0.1 // indirect
)
